{
    "iplugin": {
		"interfaces": ["IPlugin/1.0", "IUserTaskImageDataExtention/1.0", "IDataExtention/1.0"],
		"references": {
			"IUserTaskDataExtention/1.0": 1
		},
		"info": {
			"name": "TaskSketchManager",
			"about": "Adds sketches to tasks"
		}
	}
}
